{"total":290,"page":1,"size":10,"totalPages":29,"query":{"modelCombos":[],"filters":{"yearMin":2020,"yearMax":2024},"sortBy":null,"sortOrder":"asc"},"results":[{"vehicle_id":"synth-buick-enclave-2024","manufacturer":"Buick","model":"Enclave","year":2024,"body_class":"SUV","data_source":"synthetic_historical","ingested_at":"2025-11-02T07:40:42.195234","synthesis_date":"2025-11-02T07:40:42.195235","instance_count":12},{"vehicle_id":"synth-buick-enclave-2023","manufacturer":"Buick","model":"Enclave","year":2023,"body_class":"SUV","data_source":"synthetic_historical","ingested_at":"2025-11-02T07:40:42.195111","synthesis_date":"2025-11-02T07:40:42.195111","instance_count":12},{"vehicle_id":"synth-buick-enclave-2022","manufacturer":"Buick","model":"Enclave","year":2022,"body_class":"SUV","data_source":"synthetic_historical","ingested_at":"2025-11-02T07:40:42.195034","synthesis_date":"2025-11-02T07:40:42.195034","instance_count":12},{"vehicle_id":"synth-buick-enclave-2021","manufacturer":"Buick","model":"Enclave","year":2021,"body_class":"SUV","data_source":"synthetic_historical","ingested_at":"2025-11-02T07:40:42.194958","synthesis_date":"2025-11-02T07:40:42.194959","instance_count":12},{"vehicle_id":"synth-buick-enclave-2020","manufacturer":"Buick","model":"Enclave","year":2020,"body_class":"SUV","data_source":"synthetic_historical","ingested_at":"2025-11-02T07:40:42.194884","synthesis_date":"2025-11-02T07:40:42.194885","instance_count":12},{"vehicle_id":"synth-buick-encore-2024","manufacturer":"Buick","model":"Encore","year":2024,"body_class":"SUV","data_source":"synthetic_historical","ingested_at":"2025-11-02T07:40:42.195235","synthesis_date":"2025-11-02T07:40:42.195236","instance_count":12},{"vehicle_id":"synth-buick-encore-2023","manufacturer":"Buick","model":"Encore","year":2023,"body_class":"SUV","data_source":"synthetic_historical","ingested_at":"2025-11-02T07:40:42.195112","synthesis_date":"2025-11-02T07:40:42.195112","instance_count":12},{"vehicle_id":"synth-buick-encore-2022","manufacturer":"Buick","model":"Encore","year":2022,"body_class":"SUV","data_source":"synthetic_historical","ingested_at":"2025-11-02T07:40:42.195035","synthesis_date":"2025-11-02T07:40:42.195035","instance_count":12},{"vehicle_id":"synth-buick-encore-2021","manufacturer":"Buick","model":"Encore","year":2021,"body_class":"SUV","data_source":"synthetic_historical","ingested_at":"2025-11-02T07:40:42.194959","synthesis_date":"2025-11-02T07:40:42.194960","instance_count":12},{"vehicle_id":"synth-buick-encore-2020","manufacturer":"Buick","model":"Encore","year":2020,"body_class":"SUV","data_source":"synthetic_historical","ingested_at":"2025-11-02T07:40:42.194886","synthesis_date":"2025-11-02T07:40:42.194886","instance_count":12}],"statistics":{"byManufacturer":{"Chevrolet":55,"Ford":35,"Jeep":33,"Cadillac":30,"GMC":30,"Lincoln":22,"Tesla":22,"Buick":20,"Dodge":17,"Chrysler":15,"Rivian":7,"Lucid":4},"modelsByManufacturer":{"Chevrolet":{"Camaro":5,"Colorado":5,"Corvette":5,"Equinox":5,"Malibu":5,"Silverado":5,"Suburban":5,"Tahoe":5,"Traverse":5,"Trax":5,"Bolt":4,"Impala":1},"Ford":{"Edge":5,"Escape":5,"Expedition":5,"Explorer":5,"F-150":5,"Mustang":5,"Bronco Sport":4,"Fusion":1},"Jeep":{"Cherokee":5,"Compass":5,"Gladiator":5,"Grand Cherokee":5,"Renegade":5,"Wrangler":5,"Grand Wagoneer":3},"Cadillac":{"CT4":5,"CT5":5,"Escalade":5,"XT4":5,"XT5":5,"XT6":5},"GMC":{"Acadia":5,"Canyon":5,"Savana":5,"Sierra":5,"Terrain":5,"Yukon":5},"Lincoln":{"Aviator":5,"Corsair":5,"Nautilus":5,"Navigator":5,"Continental":1,"MKZ":1},"Tesla":{"Model 3":5,"Model S":5,"Model X":5,"Model Y":5,"Cybertruck":2},"Buick":{"Enclave":5,"Encore":5,"Envision":5,"Regal":5},"Dodge":{"Charger":5,"Durango":5,"Ram 1500":5,"Caravan":1,"Journey":1},"Chrysler":{"300":5,"Pacifica":5,"Voyager":5},"Rivian":{"R1T":4,"R1S":3},"Lucid":{"Air":4}},"byYearRange":{"2020":59,"2021":56,"2022":58,"2023":59,"2024":58},"byBodyClass":{"SUV":166,"Sedan":43,"Pickup":41,"Van":16,"Coupe":15,"Sports Car":5,"Hatchback":4},"totalCount":290}}