{"total":290,"page":1,"size":10,"totalPages":29,"query":{"modelCombos":[],"filters":{"bodyClass":"Pickup"},"sortBy":null,"sortOrder":"asc"},"results":[{"vehicle_id":"nhtsa-chevrolet-3500-/-4500-1957","manufacturer":"Chevrolet","model":"3500 / 4500","year":1957,"body_class":"Pickup","data_source":"nhtsa_vpic_large_sample","ingested_at":"2025-10-12T23:22:20.588407","body_class_match_type":"fallback","body_class_updated_at":"2025-11-02T07:32:25.132133","instance_count":12},{"vehicle_id":"nhtsa-chevrolet-3500hd-1953","manufacturer":"Chevrolet","model":"3500HD","year":1953,"body_class":"Pickup","data_source":"nhtsa_vpic_large_sample","ingested_at":"2025-10-12T23:22:20.584074","body_class_match_type":"fallback","body_class_updated_at":"2025-11-02T07:32:25.132062","instance_count":12},{"vehicle_id":"nhtsa-chevrolet-c/k-pickup-1962","manufacturer":"Chevrolet","model":"C/K Pickup","year":1962,"body_class":"Pickup","data_source":"nhtsa_vpic_large_sample","ingested_at":"2025-10-12T23:22:20.570905","body_class_match_type":"regex_match","body_class_updated_at":"2025-11-02T07:32:25.131853","instance_count":12},{"vehicle_id":"synth-chevrolet-colorado-2024","manufacturer":"Chevrolet","model":"Colorado","year":2024,"body_class":"Pickup","data_source":"synthetic_historical","ingested_at":"2025-11-02T07:40:42.195226","synthesis_date":"2025-11-02T07:40:42.195226","instance_count":12},{"vehicle_id":"synth-chevrolet-colorado-2023","manufacturer":"Chevrolet","model":"Colorado","year":2023,"body_class":"Pickup","data_source":"synthetic_historical","ingested_at":"2025-11-02T07:40:42.195102","synthesis_date":"2025-11-02T07:40:42.195102","instance_count":12},{"vehicle_id":"synth-chevrolet-colorado-2022","manufacturer":"Chevrolet","model":"Colorado","year":2022,"body_class":"Pickup","data_source":"synthetic_historical","ingested_at":"2025-11-02T07:40:42.195025","synthesis_date":"2025-11-02T07:40:42.195025","instance_count":12},{"vehicle_id":"synth-chevrolet-colorado-2021","manufacturer":"Chevrolet","model":"Colorado","year":2021,"body_class":"Pickup","data_source":"synthetic_historical","ingested_at":"2025-11-02T07:40:42.194949","synthesis_date":"2025-11-02T07:40:42.194949","instance_count":12},{"vehicle_id":"synth-chevrolet-colorado-2020","manufacturer":"Chevrolet","model":"Colorado","year":2020,"body_class":"Pickup","data_source":"synthetic_historical","ingested_at":"2025-11-02T07:40:42.194873","synthesis_date":"2025-11-02T07:40:42.194873","instance_count":12},{"vehicle_id":"synth-chevrolet-colorado-2019","manufacturer":"Chevrolet","model":"Colorado","year":2019,"body_class":"Pickup","data_source":"synthetic_historical","ingested_at":"2025-11-02T07:40:42.194802","synthesis_date":"2025-11-02T07:40:42.194803","instance_count":12},{"vehicle_id":"synth-chevrolet-colorado-2018","manufacturer":"Chevrolet","model":"Colorado","year":2018,"body_class":"Pickup","data_source":"synthetic_historical","ingested_at":"2025-11-02T07:40:42.194730","synthesis_date":"2025-11-02T07:40:42.194730","instance_count":12}],"statistics":{"byManufacturer":{"Ford":88,"Chevrolet":86,"GMC":67,"Dodge":22,"Jeep":14,"Ram":6,"Rivian":4,"Tesla":3},"modelsByManufacturer":{"Ford":{"F-150":51,"Ranger":30,"F-150 Heritage":1,"F-250":1,"F-350":1,"F-450":1,"F-550":1,"F-700":1,"F-800":1},"Chevrolet":{"El Camino":30,"Silverado":27,"Colorado":22,"3500 / 4500":1,"3500HD":1,"C/K Pickup":1,"LUV":1,"Military Truck":1,"P Truck Forward":1,"S-10 Pickup":1},"GMC":{"Sierra":38,"Canyon":22,"C/K Pickup":1,"Hummer EV Pickup":1,"P Truck Forward":1,"S15 Pickup":1,"Sierra HD":1,"Sierra Limited":1,"W3500/W4500":1},"Dodge":{"Ram 1500":16,"Dakota":1,"Mini Ram":1,"RAM 50":1,"RD200 / RD250":1,"Ram":1,"Rampage":1},"Jeep":{"Comanche":8,"Gladiator":6},"Ram":{"1500":1,"2500":1,"3500":1,"ProMaster 1500":1,"ProMaster 2500":1,"ProMaster 3500":1},"Rivian":{"R1T":4},"Tesla":{"Cybertruck":3}},"byYearRange":{"1953":6,"1955":3,"1957":6,"1959":1,"1960":4,"1961":1,"1962":7,"1963":1,"1964":1,"1965":7,"1966":1,"1967":1,"1968":4,"1969":1,"1970":4,"1971":1,"1972":4,"1973":1,"1974":1,"1975":6,"1976":2,"1977":2,"1978":2,"1979":2,"1980":2,"1981":2,"1982":2,"1983":3,"1984":3,"1985":3,"1986":4,"1987":4,"1988":4,"1989":4,"1990":4,"1991":4,"1992":4,"1993":3,"1994":3,"1995":3,"1996":3,"1997":3,"1998":3,"1999":4,"2000":4,"2001":4,"2002":4,"2003":4,"2004":6,"2005":6,"2006":6,"2007":6,"2008":6,"2009":7,"2010":7,"2011":7,"2012":6,"2013":6,"2014":6,"2015":6,"2016":6,"2017":6,"2018":6,"2019":6,"2020":7,"2021":8,"2022":8,"2023":9,"2024":9},"byBodyClass":{"Pickup":290},"totalCount":290}}