{"total":121,"page":1,"size":10,"totalPages":13,"query":{"modelCombos":[{"manufacturer":"Ford","model":"Mustang"},{"manufacturer":"Chevrolet","model":"Camaro"}],"filters":{},"sortBy":null,"sortOrder":"asc"},"results":[{"vehicle_id":"synth-chevrolet-camaro-2024","manufacturer":"Chevrolet","model":"Camaro","year":2024,"body_class":"Coupe","data_source":"synthetic_historical","ingested_at":"2025-11-02T07:40:42.195216","synthesis_date":"2025-11-02T07:40:42.195216","instance_count":12},{"vehicle_id":"synth-chevrolet-camaro-2023","manufacturer":"Chevrolet","model":"Camaro","year":2023,"body_class":"Coupe","data_source":"synthetic_historical","ingested_at":"2025-11-02T07:40:42.195092","synthesis_date":"2025-11-02T07:40:42.195092","instance_count":12},{"vehicle_id":"synth-chevrolet-camaro-2022","manufacturer":"Chevrolet","model":"Camaro","year":2022,"body_class":"Coupe","data_source":"synthetic_historical","ingested_at":"2025-11-02T07:40:42.195015","synthesis_date":"2025-11-02T07:40:42.195016","instance_count":12},{"vehicle_id":"synth-chevrolet-camaro-2021","manufacturer":"Chevrolet","model":"Camaro","year":2021,"body_class":"Coupe","data_source":"synthetic_historical","ingested_at":"2025-11-02T07:40:42.194938","synthesis_date":"2025-11-02T07:40:42.194938","instance_count":12},{"vehicle_id":"synth-chevrolet-camaro-2020","manufacturer":"Chevrolet","model":"Camaro","year":2020,"body_class":"Coupe","data_source":"synthetic_historical","ingested_at":"2025-11-02T07:40:42.194863","synthesis_date":"2025-11-02T07:40:42.194863","instance_count":12},{"vehicle_id":"synth-chevrolet-camaro-2019","manufacturer":"Chevrolet","model":"Camaro","year":2019,"body_class":"Coupe","data_source":"synthetic_historical","ingested_at":"2025-11-02T07:40:42.194792","synthesis_date":"2025-11-02T07:40:42.194792","instance_count":12},{"vehicle_id":"synth-chevrolet-camaro-2018","manufacturer":"Chevrolet","model":"Camaro","year":2018,"body_class":"Coupe","data_source":"synthetic_historical","ingested_at":"2025-11-02T07:40:42.194718","synthesis_date":"2025-11-02T07:40:42.194718","instance_count":12},{"vehicle_id":"synth-chevrolet-camaro-2017","manufacturer":"Chevrolet","model":"Camaro","year":2017,"body_class":"Coupe","data_source":"synthetic_historical","ingested_at":"2025-11-02T07:40:42.194639","synthesis_date":"2025-11-02T07:40:42.194639","instance_count":12},{"vehicle_id":"synth-chevrolet-camaro-2016","manufacturer":"Chevrolet","model":"Camaro","year":2016,"body_class":"Coupe","data_source":"synthetic_historical","ingested_at":"2025-11-02T07:40:42.194562","synthesis_date":"2025-11-02T07:40:42.194562","instance_count":12},{"vehicle_id":"synth-chevrolet-camaro-2015","manufacturer":"Chevrolet","model":"Camaro","year":2015,"body_class":"Coupe","data_source":"synthetic_historical","ingested_at":"2025-11-02T07:40:42.194485","synthesis_date":"2025-11-02T07:40:42.194485","instance_count":12}],"statistics":{"byManufacturer":{"Ford":62,"Chevrolet":59},"modelsByManufacturer":{"Ford":{"Mustang":62},"Chevrolet":{"Camaro":59}},"byYearRange":{"1955":1,"1960":1,"1964":1,"1965":1,"1966":1,"1967":2,"1968":2,"1969":2,"1970":2,"1971":2,"1972":2,"1973":2,"1974":2,"1975":2,"1976":2,"1977":2,"1978":2,"1979":2,"1980":2,"1981":2,"1982":2,"1983":2,"1984":2,"1985":2,"1986":2,"1987":2,"1988":2,"1989":2,"1990":2,"1991":2,"1992":2,"1993":2,"1994":2,"1995":2,"1996":2,"1997":2,"1998":2,"1999":2,"2000":2,"2001":2,"2002":2,"2003":2,"2004":2,"2005":2,"2006":2,"2007":2,"2008":2,"2009":2,"2010":2,"2011":2,"2012":2,"2013":2,"2014":2,"2015":2,"2016":2,"2017":2,"2018":2,"2019":2,"2020":2,"2021":2,"2022":2,"2023":2,"2024":2},"byBodyClass":{"Coupe":121},"totalCount":121}}