{"total":665,"page":1,"size":10,"totalPages":67,"query":{"modelCombos":[],"filters":{"manufacturer":"Ford"},"sortBy":null,"sortOrder":"asc"},"results":[{"vehicle_id":"nhtsa-ford-a8513-1975","manufacturer":"Ford","model":"A8513","year":1975,"body_class":"Sedan","data_source":"nhtsa_vpic_large_sample","ingested_at":"2025-10-12T23:22:20.088731","body_class_match_type":"fallback","body_class_updated_at":"2025-11-02T07:32:25.129843","instance_count":12},{"vehicle_id":"nhtsa-ford-a9513-1955","manufacturer":"Ford","model":"A9513","year":1955,"body_class":"Sedan","data_source":"nhtsa_vpic_large_sample","ingested_at":"2025-10-12T23:22:20.093066","body_class_match_type":"fallback","body_class_updated_at":"2025-11-02T07:32:25.129890","instance_count":12},{"vehicle_id":"nhtsa-ford-a9522-1960","manufacturer":"Ford","model":"A9522","year":1960,"body_class":"Sedan","data_source":"nhtsa_vpic_large_sample","ingested_at":"2025-10-12T23:22:20.097597","body_class_match_type":"fallback","body_class_updated_at":"2025-11-02T07:32:25.129937","instance_count":12},{"vehicle_id":"nhtsa-ford-at8513-1953","manufacturer":"Ford","model":"AT8513","year":1953,"body_class":"Sedan","data_source":"nhtsa_vpic_large_sample","ingested_at":"2025-10-12T23:22:20.090929","body_class_match_type":"fallback","body_class_updated_at":"2025-11-02T07:32:25.129868","instance_count":12},{"vehicle_id":"nhtsa-ford-at9513-1957","manufacturer":"Ford","model":"AT9513","year":1957,"body_class":"Sedan","data_source":"nhtsa_vpic_large_sample","ingested_at":"2025-10-12T23:22:20.095279","body_class_match_type":"fallback","body_class_updated_at":"2025-11-02T07:32:25.129914","instance_count":12},{"vehicle_id":"nhtsa-ford-at9522-1962","manufacturer":"Ford","model":"AT9522","year":1962,"body_class":"Sedan","data_source":"nhtsa_vpic_large_sample","ingested_at":"2025-10-12T23:22:20.099702","body_class_match_type":"fallback","body_class_updated_at":"2025-11-02T07:32:25.129961","instance_count":12},{"vehicle_id":"nhtsa-ford-aerostar-1955","manufacturer":"Ford","model":"Aerostar","year":1955,"body_class":"Van","data_source":"nhtsa_vpic_large_sample","ingested_at":"2025-10-12T23:22:20.049549","body_class_match_type":"exact_match","body_class_updated_at":"2025-11-02T07:32:25.129084","instance_count":12},{"vehicle_id":"nhtsa-ford-aspire-1970","manufacturer":"Ford","model":"Aspire","year":1970,"body_class":"Sedan","data_source":"nhtsa_vpic_large_sample","ingested_at":"2025-10-12T23:22:20.040907","body_class_match_type":"fallback","body_class_updated_at":"2025-11-02T07:32:25.129031","instance_count":12},{"vehicle_id":"nhtsa-ford-b-750-1960","manufacturer":"Ford","model":"B-750","year":1960,"body_class":"Sedan","data_source":"nhtsa_vpic_large_sample","ingested_at":"2025-10-12T23:22:20.032091","body_class_match_type":"fallback","body_class_updated_at":"2025-11-02T07:32:25.128643","instance_count":12},{"vehicle_id":"nhtsa-ford-b800-1965","manufacturer":"Ford","model":"B800","year":1965,"body_class":"Sedan","data_source":"nhtsa_vpic_large_sample","ingested_at":"2025-10-12T23:22:20.101845","body_class_match_type":"fallback","body_class_updated_at":"2025-11-02T07:32:25.129988","instance_count":12}],"statistics":{"byManufacturer":{"Ford":{"total":665,"highlighted":61}},"modelsByManufacturer":{"Ford":{"Mustang":{"total":62,"highlighted":6},"F-150":{"total":51,"highlighted":6},"Thunderbird":{"total":44,"highlighted":0},"Explorer":{"total":35,"highlighted":6},"Taurus":{"total":35,"highlighted":5},"Bronco":{"total":32,"highlighted":0},"Ranger":{"total":30,"highlighted":0},"Expedition":{"total":29,"highlighted":6},"Escape":{"total":25,"highlighted":6},"Escort":{"total":24,"highlighted":0},"Focus":{"total":20,"highlighted":4},"Model T":{"total":20,"highlighted":0},"Edge":{"total":19,"highlighted":6},"Fairlane":{"total":16,"highlighted":0},"Fusion":{"total":16,"highlighted":6},"Galaxie":{"total":16,"highlighted":0},"Flex":{"total":12,"highlighted":5},"Falcon":{"total":11,"highlighted":0},"Tempo":{"total":11,"highlighted":0},"Fiesta":{"total":10,"highlighted":5},"Pinto":{"total":10,"highlighted":0},"Windstar":{"total":10,"highlighted":0},"Granada":{"total":8,"highlighted":0},"Maverick":{"total":8,"highlighted":0},"Super Deluxe":{"total":8,"highlighted":0},"Mainline":{"total":5,"highlighted":0},"Bronco Sport":{"total":4,"highlighted":0},"Model A":{"total":4,"highlighted":0},"Custom":{"total":3,"highlighted":0},"Deluxe":{"total":3,"highlighted":0},"Model B":{"total":3,"highlighted":0},"Model 48":{"total":2,"highlighted":0},"A8513":{"total":1,"highlighted":0},"A9513":{"total":1,"highlighted":0},"A9522":{"total":1,"highlighted":0},"AT8513":{"total":1,"highlighted":0},"AT9513":{"total":1,"highlighted":0},"AT9522":{"total":1,"highlighted":0},"Aerostar":{"total":1,"highlighted":0},"Aspire":{"total":1,"highlighted":0},"B-750":{"total":1,"highlighted":0},"B800":{"total":1,"highlighted":0},"C-Max":{"total":1,"highlighted":0},"Commercial Chassis":{"total":1,"highlighted":0},"Contour":{"total":1,"highlighted":0},"Crown Victoria":{"total":1,"highlighted":0},"E-150":{"total":1,"highlighted":0},"E-250":{"total":1,"highlighted":0},"E-350":{"total":1,"highlighted":0},"E-450":{"total":1,"highlighted":0}}},"byYearRange":{"1908":{"total":1,"highlighted":0},"1909":{"total":1,"highlighted":0},"1910":{"total":1,"highlighted":0},"1911":{"total":1,"highlighted":0},"1912":{"total":1,"highlighted":0},"1913":{"total":1,"highlighted":0},"1914":{"total":1,"highlighted":0},"1915":{"total":1,"highlighted":0},"1916":{"total":1,"highlighted":0},"1917":{"total":1,"highlighted":0},"1918":{"total":1,"highlighted":0},"1919":{"total":1,"highlighted":0},"1920":{"total":1,"highlighted":0},"1921":{"total":1,"highlighted":0},"1922":{"total":1,"highlighted":0},"1923":{"total":1,"highlighted":0},"1924":{"total":1,"highlighted":0},"1925":{"total":1,"highlighted":0},"1926":{"total":1,"highlighted":0},"1927":{"total":1,"highlighted":0},"1928":{"total":1,"highlighted":0},"1929":{"total":1,"highlighted":0},"1930":{"total":1,"highlighted":0},"1931":{"total":1,"highlighted":0},"1932":{"total":1,"highlighted":0},"1933":{"total":1,"highlighted":0},"1934":{"total":1,"highlighted":0},"1935":{"total":1,"highlighted":0},"1936":{"total":1,"highlighted":0},"1938":{"total":1,"highlighted":0},"1939":{"total":1,"highlighted":0},"1940":{"total":1,"highlighted":0},"1941":{"total":1,"highlighted":0},"1942":{"total":1,"highlighted":0},"1943":{"total":1,"highlighted":0},"1944":{"total":1,"highlighted":0},"1945":{"total":1,"highlighted":0},"1946":{"total":1,"highlighted":0},"1947":{"total":1,"highlighted":0},"1948":{"total":1,"highlighted":0},"1949":{"total":1,"highlighted":0},"1950":{"total":1,"highlighted":0},"1951":{"total":1,"highlighted":0},"1952":{"total":1,"highlighted":0},"1953":{"total":11,"highlighted":0},"1954":{"total":1,"highlighted":0},"1955":{"total":13,"highlighted":0},"1956":{"total":3,"highlighted":0},"1957":{"total":12,"highlighted":0},"1958":{"total":2,"highlighted":0},"1959":{"total":3,"highlighted":0},"1960":{"total":13,"highlighted":0},"1961":{"total":4,"highlighted":0},"1962":{"total":13,"highlighted":0},"1963":{"total":4,"highlighted":0},"1964":{"total":5,"highlighted":0},"1965":{"total":15,"highlighted":0},"1966":{"total":6,"highlighted":0},"1967":{"total":6,"highlighted":0},"1968":{"total":15,"highlighted":0},"1969":{"total":6,"highlighted":0},"1970":{"total":16,"highlighted":0},"1971":{"total":6,"highlighted":0},"1972":{"total":15,"highlighted":0},"1973":{"total":6,"highlighted":0},"1974":{"total":6,"highlighted":0},"1975":{"total":17,"highlighted":0},"1976":{"total":7,"highlighted":0},"1977":{"total":7,"highlighted":0},"1978":{"total":6,"highlighted":0},"1979":{"total":6,"highlighted":0},"1980":{"total":6,"highlighted":0},"1981":{"total":6,"highlighted":0},"1982":{"total":6,"highlighted":0},"1983":{"total":6,"highlighted":0},"1984":{"total":7,"highlighted":0},"1985":{"total":7,"highlighted":0},"1986":{"total":8,"highlighted":0},"1987":{"total":8,"highlighted":0},"1988":{"total":8,"highlighted":0},"1989":{"total":8,"highlighted":0},"1990":{"total":8,"highlighted":0},"1991":{"total":9,"highlighted":0},"1992":{"total":9,"highlighted":0},"1993":{"total":9,"highlighted":0},"1994":{"total":9,"highlighted":0},"1995":{"total":9,"highlighted":0},"1996":{"total":9,"highlighted":0},"1997":{"total":9,"highlighted":0},"1998":{"total":8,"highlighted":0},"1999":{"total":8,"highlighted":0},"2000":{"total":9,"highlighted":0},"2001":{"total":10,"highlighted":0},"2002":{"total":10,"highlighted":0},"2003":{"total":10,"highlighted":0},"2004":{"total":8,"highlighted":0},"2005":{"total":8,"highlighted":0},"2006":{"total":9,"highlighted":0},"2007":{"total":10,"highlighted":0},"2008":{"total":10,"highlighted":0}},"byBodyClass":{"Sedan":{"total":229,"highlighted":15},"SUV":{"total":156,"highlighted":29},"Coupe":{"total":108,"highlighted":6},"Pickup":{"total":88,"highlighted":6},"Hatchback":{"total":43,"highlighted":5},"Touring Car":{"total":20,"highlighted":0},"Van":{"total":18,"highlighted":0},"Truck":{"total":2,"highlighted":0},"Sports Car":{"total":1,"highlighted":0}},"totalCount":665}}