{"total":50,"page":1,"size":10,"totalPages":5,"query":{"modelCombos":[],"filters":{"manufacturer":"Chevrolet","yearMin":2010,"yearMax":2020,"bodyClass":"SUV"},"sortBy":null,"sortOrder":"asc"},"results":[{"vehicle_id":"synth-chevrolet-equinox-2020","manufacturer":"Chevrolet","model":"Equinox","year":2020,"body_class":"SUV","data_source":"synthetic_historical","ingested_at":"2025-11-02T07:40:42.194868","synthesis_date":"2025-11-02T07:40:42.194869","instance_count":12},{"vehicle_id":"synth-chevrolet-equinox-2019","manufacturer":"Chevrolet","model":"Equinox","year":2019,"body_class":"SUV","data_source":"synthetic_historical","ingested_at":"2025-11-02T07:40:42.194797","synthesis_date":"2025-11-02T07:40:42.194798","instance_count":12},{"vehicle_id":"synth-chevrolet-equinox-2018","manufacturer":"Chevrolet","model":"Equinox","year":2018,"body_class":"SUV","data_source":"synthetic_historical","ingested_at":"2025-11-02T07:40:42.194724","synthesis_date":"2025-11-02T07:40:42.194724","instance_count":12},{"vehicle_id":"synth-chevrolet-equinox-2017","manufacturer":"Chevrolet","model":"Equinox","year":2017,"body_class":"SUV","data_source":"synthetic_historical","ingested_at":"2025-11-02T07:40:42.194645","synthesis_date":"2025-11-02T07:40:42.194645","instance_count":12},{"vehicle_id":"synth-chevrolet-equinox-2016","manufacturer":"Chevrolet","model":"Equinox","year":2016,"body_class":"SUV","data_source":"synthetic_historical","ingested_at":"2025-11-02T07:40:42.194568","synthesis_date":"2025-11-02T07:40:42.194568","instance_count":12},{"vehicle_id":"synth-chevrolet-equinox-2015","manufacturer":"Chevrolet","model":"Equinox","year":2015,"body_class":"SUV","data_source":"synthetic_historical","ingested_at":"2025-11-02T07:40:42.194490","synthesis_date":"2025-11-02T07:40:42.194491","instance_count":12},{"vehicle_id":"synth-chevrolet-equinox-2014","manufacturer":"Chevrolet","model":"Equinox","year":2014,"body_class":"SUV","data_source":"synthetic_historical","ingested_at":"2025-11-02T07:40:42.194417","synthesis_date":"2025-11-02T07:40:42.194417","instance_count":12},{"vehicle_id":"synth-chevrolet-equinox-2013","manufacturer":"Chevrolet","model":"Equinox","year":2013,"body_class":"SUV","data_source":"synthetic_historical","ingested_at":"2025-11-02T07:40:42.194343","synthesis_date":"2025-11-02T07:40:42.194343","instance_count":12},{"vehicle_id":"synth-chevrolet-equinox-2012","manufacturer":"Chevrolet","model":"Equinox","year":2012,"body_class":"SUV","data_source":"synthetic_historical","ingested_at":"2025-11-02T07:40:42.194271","synthesis_date":"2025-11-02T07:40:42.194272","instance_count":12},{"vehicle_id":"synth-chevrolet-equinox-2011","manufacturer":"Chevrolet","model":"Equinox","year":2011,"body_class":"SUV","data_source":"synthetic_historical","ingested_at":"2025-11-02T07:40:42.194198","synthesis_date":"2025-11-02T07:40:42.194199","instance_count":12}],"statistics":{"byManufacturer":{"Chevrolet":50},"modelsByManufacturer":{"Chevrolet":{"Equinox":11,"Suburban":11,"Tahoe":11,"Traverse":11,"Trax":6}},"byYearRange":{"2010":4,"2011":4,"2012":4,"2013":4,"2014":4,"2015":5,"2016":5,"2017":5,"2018":5,"2019":5,"2020":5},"byBodyClass":{"SUV":50},"totalCount":50}}