{"total":4887,"page":2,"size":10,"totalPages":489,"query":{"modelCombos":[],"filters":{},"sortBy":"year","sortOrder":"desc"},"results":[{"vehicle_id":"synth-chevrolet-tahoe-2024","manufacturer":"Chevrolet","model":"Tahoe","year":2024,"body_class":"SUV","data_source":"synthetic_historical","ingested_at":"2025-11-02T07:40:42.195219","synthesis_date":"2025-11-02T07:40:42.195220","instance_count":12},{"vehicle_id":"synth-chevrolet-silverado-2024","manufacturer":"Chevrolet","model":"Silverado","year":2024,"body_class":"Pickup","data_source":"synthetic_historical","ingested_at":"2025-11-02T07:40:42.195220","synthesis_date":"2025-11-02T07:40:42.195221","instance_count":12},{"vehicle_id":"synth-chevrolet-malibu-2024","manufacturer":"Chevrolet","model":"Malibu","year":2024,"body_class":"Sedan","data_source":"synthetic_historical","ingested_at":"2025-11-02T07:40:42.195221","synthesis_date":"2025-11-02T07:40:42.195222","instance_count":12},{"vehicle_id":"synth-chevrolet-equinox-2024","manufacturer":"Chevrolet","model":"Equinox","year":2024,"body_class":"SUV","data_source":"synthetic_historical","ingested_at":"2025-11-02T07:40:42.195222","synthesis_date":"2025-11-02T07:40:42.195223","instance_count":12},{"vehicle_id":"synth-chevrolet-traverse-2024","manufacturer":"Chevrolet","model":"Traverse","year":2024,"body_class":"SUV","data_source":"synthetic_historical","ingested_at":"2025-11-02T07:40:42.195223","synthesis_date":"2025-11-02T07:40:42.195224","instance_count":12},{"vehicle_id":"synth-chevrolet-trax-2024","manufacturer":"Chevrolet","model":"Trax","year":2024,"body_class":"SUV","data_source":"synthetic_historical","ingested_at":"2025-11-02T07:40:42.195224","synthesis_date":"2025-11-02T07:40:42.195225","instance_count":12},{"vehicle_id":"synth-chevrolet-colorado-2024","manufacturer":"Chevrolet","model":"Colorado","year":2024,"body_class":"Pickup","data_source":"synthetic_historical","ingested_at":"2025-11-02T07:40:42.195226","synthesis_date":"2025-11-02T07:40:42.195226","instance_count":12},{"vehicle_id":"synth-dodge-charger-2024","manufacturer":"Dodge","model":"Charger","year":2024,"body_class":"Coupe","data_source":"synthetic_historical","ingested_at":"2025-11-02T07:40:42.195227","synthesis_date":"2025-11-02T07:40:42.195228","instance_count":12},{"vehicle_id":"synth-dodge-durango-2024","manufacturer":"Dodge","model":"Durango","year":2024,"body_class":"SUV","data_source":"synthetic_historical","ingested_at":"2025-11-02T07:40:42.195229","synthesis_date":"2025-11-02T07:40:42.195229","instance_count":12},{"vehicle_id":"synth-dodge-ram-1500-2024","manufacturer":"Dodge","model":"Ram 1500","year":2024,"body_class":"Pickup","data_source":"synthetic_historical","ingested_at":"2025-11-02T07:40:42.195230","synthesis_date":"2025-11-02T07:40:42.195230","instance_count":5}],"statistics":{"byManufacturer":{"Chevrolet":849,"Ford":665,"Buick":480,"Chrysler":415,"Dodge":390,"Cadillac":361,"Pontiac":326,"Lincoln":307,"Jeep":299,"GMC":285,"Plymouth":169,"International":100,"Tesla":50,"WHITEGMC":26,"Ram-Lin":22,"Oldsmobile":21,"Mercury":17,"Ram":11,"RamVac":8,"RAM OEM Trailer":7,"Rivian":7,"Brammo":5,"TRINITY FRAME & FAB":5,"Lucid":4,"RIVIAN":4,"CUSTOM WELDED FRAME":3,"Pro-Street Frameworks":3,"Studebaker Motor Company":3,"Dodger Trailer Manufacturing Inc":2,"Affordable Aluminum":1,"Best Lane Enterprises dba Ramp Free":1,"Burkett's Autorama":1,"Dodgen Industries":1,"Eagle Ford Tanks & Trailers LLC":1,"Easton Custom Frames L.L.C":1,"EnduraMax":1,"FATT HOGG FRAMES":1,"FRAMTRAC MANUFACTURING CO. LTD":1,"Holiday Rambler":1,"JR RAMIRO":1,"John Ingram, Inc.":1,"KTM Aluminum Frame":1,"KTM Steel Frame":1,"Kramo Trailers":1,"Milford Pipe & Supply":1,"Milford Welding & Manufacturing":1,"NEXGEN FRAMING SYSTEM, LLC":1,"Paramount Custom Cycles":1,"PortAFrame":1,"Pyramid":1,"RAMP AGE TRAILER CO.":1,"RAMSHORN WELDING":1,"Ram Enterprises, LLC":1,"Ram Fabrication":1,"Ram Transcorp":1,"Rambler":1,"Ramika":1,"Ramirez":1,"Ramp Champ":1,"Rampless":1,"Rampless Motorcycle Trailers":1,"Ramptek":1,"Ramsey Fabrication":1,"Robert Allen Mowery Ramco":1,"SCHRAMM, INC.":1,"Sprinter (Dodge or Freightliner)":1,"TerraMarc Industries":1,"Tram Power Car":1,"Tram Trailer":1,"Tramont Corporation":1,"Tramont Manufacturing":1,"Waterford Tank and Fabrication":1},"modelsByManufacturer":{"Chevrolet":{"490":8,"Suburban":91,"Corvette":73,"Impala":64,"Malibu":62,"Camaro":59,"Blazer":38,"Bel Air":32,"Tahoe":31,"El Camino":30,"Nova":28,"Silverado":27,"Cavalier":25,"Colorado":22,"Equinox":21,"Nomad":18,"Traverse":17,"Chevelle":14,"Chevette":13,"Lumina":13,"Corsica":11,"Fleetline":11,"Trax":11,"Corvair":10,"Master":10,"Bolt":7,"Citation":7,"Vega":7,"Superior":4,"National":2,"Series C":2,"3 ton":1,"3500 / 4500":1,"3500HD":1,"4500HD":1,"4500XD":1,"5500HD":1,"5500XD":1,"Alero":1,"Aluminum Tilt":1,"Astro Van":1,"Avalanche":1,"Aveo":1,"B7":1,"Beretta":1,"Bolt EV":1,"Bus Chassis":1,"C/K Pickup":1,"C4":1,"C5":1},"Ford":{"Mustang":62,"F-150":51,"Thunderbird":44,"Explorer":35,"Taurus":35,"Bronco":32,"Ranger":30,"Expedition":29,"Escape":25,"Escort":24,"Focus":20,"Model T":20,"Edge":19,"Fairlane":16,"Fusion":16,"Galaxie":16,"Flex":12,"Falcon":11,"Tempo":11,"Fiesta":10,"Pinto":10,"Windstar":10,"Granada":8,"Maverick":8,"Super Deluxe":8,"Mainline":5,"Bronco Sport":4,"Model A":4,"Custom":3,"Deluxe":3,"Model B":3,"Model 48":2,"A8513":1,"A9513":1,"A9522":1,"AT8513":1,"AT9513":1,"AT9522":1,"Aerostar":1,"Aspire":1,"B-750":1,"B800":1,"C-Max":1,"Commercial Chassis":1,"Contour":1,"Crown Victoria":1,"E-150":1,"E-250":1,"E-350":1,"E-450":1},"Buick":{"Century":71,"Regal":53,"LeSabre":48,"Skylark":47,"Riviera":38,"Special":34,"Electra":33,"Series 40":25,"Roadmaster":24,"Enclave":18,"Park Avenue":16,"Skyhawk":16,"Encore":13,"Envision":10,"Lucerne":7,"Rendezvous":7,"Somerset":4,"Model 10":2,"Model D":2,"Allure":1,"Cascada":1,"Coachbuilder":1,"Encore GX":1,"Envista":1,"Incomplete":1,"LaCrosse":1,"Rainier":1,"Reatta":1,"Regal TourX":1,"Terraza":1,"Verano":1},"Chrysler":{"200":8,"300":71,"Imperial":69,"New Yorker":59,"Town & Country":27,"Windsor":23,"Newport":21,"LeBaron":20,"Sebring":17,"Royal":14,"Concorde":13,"PT Cruiser":11,"Pacifica":9,"Cirrus":7,"Voyager":6,"Airflow":4,"Laser":3,"Series 60":3,"Series 75":2,"300C":1,"Aspen":1,"Caravan":1,"Concorde/LHS":1,"Conquest":1,"Cordoba":1,"Crossfire":1,"Daytona":1,"Dynasty":1,"E-CLASS":1,"EXECUTIVE":1,"FIFTH AVENUE":1,"Grand Caravan":1,"Grand Voyager":1,"Intrepid":1,"LASER":1,"LHS":1,"Model B-70":1,"NEWPORT":1,"Neon":1,"Prowler":1,"SALON":1,"Shadow":1,"Stratus":1,"TC":1,"Town and Country":1,"Viper":1,"Vision":1},"Dodge":{"400":1,"600":1,"Charger":60,"Caravan":38,"Coronet":28,"Durango":28,"Viper":27,"Ram 1500":16,"Polara":14,"Intrepid":13,"Journey":13,"Omni":13,"Stratus":13,"Deluxe":12,"Neon":12,"Daytona":11,"Aries":9,"Shadow":9,"Senior Six":7,"Challenger":6,"Royal":6,"Aspen":5,"Dart":5,"Model 30":3,"Series 116":2,"ARIES":1,"Avenger":1,"Caliber":1,"Caravan/Grand Caravan":1,"Chassis with Powertrain":1,"Colt":1,"Conquest":1,"D-Series":1,"D50":1,"DIPLOMAT":1,"Dakota":1,"Dynasty":1,"Grand Caravan":1,"Hornet":1,"LANCER":1,"Magnum":1,"Mini Ram":1,"Mirada":1,"Monaco":1,"Nitro":1,"OMNI":1,"RAM 50":1,"RD200 / RD250":1,"Raider":1,"Ram":1},"Cadillac":{"Eldorado":51,"Fleetwood":51,"DeVille":47,"Seville":30,"Escalade":27,"Series 62":25,"CTS":18,"SRX":14,"XT5":9,"ATS":8,"Allante":8,"Cimarron":8,"XT4":7,"CT4":6,"CT5":6,"Catera":6,"XT6":6,"Series 341":4,"Series 355":3,"Series 60":3,"Series 314":2,"60 Special":1,"Armored Vehicle":1,"Brougham":1,"CT6":1,"Celestiq":1,"Commercial Chassis":1,"DTS":1,"Deville":1,"ELR":1,"Escalade ESV":1,"Escalade IQ":1,"Escalade IQL":1,"Funeral Coach":1,"Hearse":1,"Limousine":1,"Lyriq":1,"Optiq":1,"STS":1,"Stretch Limousine":1,"Vistiq":1,"XLR":1,"XTS":1},"Pontiac":{"6000":1,"Bonneville":50,"Firebird":37,"Catalina":33,"Grand Am":33,"Grand Prix":22,"Sunbird":20,"Star Chief":13,"GTO":12,"Sunfire":12,"Tempest":11,"Chieftain":10,"Streamliner":10,"Phoenix":9,"Vibe":9,"G6":7,"Fiero":6,"Solstice":6,"Series 6-27":2,"Acadian":1,"Aztek":1,"Firefly":1,"G3":1,"G5":1,"G8":1,"Grand AM":1,"Grand Lemans":1,"J2000":1,"Laurentian":1,"Lemans":1,"Matiz":1,"Montana":1,"Montana SV6":1,"Parisienne":1,"Pursuit":1,"Safari":1,"Sunbird 2000":1,"Sunburst":1,"T1000":1,"Torrent":1,"Trans Sport":1,"Wave":1},"Lincoln":{"Continental":83,"Mark Series":41,"Town Car":32,"Navigator":28,"MKZ":15,"MKX":13,"Model L":11,"Model K":10,"MKS":9,"Capri":8,"LS":8,"Zephyr":8,"Nautilus":7,"Aviator":6,"Corsair":6,"Cosmopolitan":6,"MKC":6,"Premiere":5,"Blackwood":1,"MKT":1,"Mark":1,"Mark LT":1,"Navigator L":1},"Jeep":{"Cherokee":52,"Wrangler":39,"Grand Cherokee":33,"CJ-5":31,"Wagoneer":30,"Compass":19,"CJ-7":12,"Liberty":12,"Patriot":12,"Renegade":11,"Comanche":8,"Commander":6,"Gladiator":6,"CJ-2A":5,"CJ-3A":5,"Willys MB":5,"Grand Wagoneer":4,"CJ-6":1,"CJ-8 Scrambler":1,"Grand Cherokee L":1,"Grand Wagoneer L":1,"J-10":1,"J-20":1,"Wagoneer L":1,"Wagoneer S":1,"Wrangler JK":1},"GMC":{"Sierra":38,"Jimmy":37,"Yukon":34,"Savana":30,"Canyon":22,"Safari":22,"Acadia":19,"Terrain":16,"Envoy":13,"Model 16":2,"Aluminum Tilt":1,"Articulated Coach":1,"B7":1,"Bus Chassis":1,"C/K Pickup":1,"C4":1,"C5":1,"C6":1,"C7":1,"C8":1,"Caballero":1,"Cruise Origin AV":1,"Cutaway Chassis":1,"Cutaway Van":1,"D7":1,"Electric Vehicle":1,"Forward Control":1,"GMT-400":1,"Geo Tracker":1,"Heavy Conventional":1,"Hi-Cube":1,"Hummer EV Pickup":1,"Hummer EV SUV":1,"Jimmy Utility":1,"Magna Van":1,"Motorhome Chassis":1,"P Truck Forward":1,"P6S":1,"R Conventional":1,"Rally":1,"S15 Pickup":1,"S15 Utility":1,"S6":1,"S7":1,"Sierra HD":1,"Sierra Limited":1,"Sonoma":1,"Suburban":1,"T-Series":1,"Transit Coach":1},"Plymouth":{"Fury":23,"Deluxe":18,"Valiant":17,"Horizon":13,"Road Runner":13,"Barracuda":11,"Reliant":9,"Sundance":9,"Acclaim":8,"Neon":8,"Duster":7,"Prowler":7,"Volare":5,"Model U":3,"Model Q":2,"Arrow":1,"Breeze":1,"CARAVELLE":1,"CONQUEST":1,"Champ":1,"Colt":1,"GRAN FURY":1,"Grand Voyager":1,"HORIZON":1,"Laser":1,"RELIANT":1,"SAPPORO":1,"Scamp":1,"TURISMO":1,"Trailduster":1,"Voyager":1},"International":{"9M005":1,"9M006":1,"9M007":1,"DF577":1,"DF677":1,"DW577":1,"DW597":1,"DW697":1,"DZ577":1,"GA107":1,"GF107":1,"GR025":1,"GR035":1,"GW107":1,"GZ107":1,"KL045":1,"KL055":1,"L3307":1,"L3337":1,"L3377":1,"L3407":1,"L3417":1,"L3427":1,"L3437":1,"L3447":1,"L9217":1,"L9227":1,"L9327":1,"L9357":1,"L9377":1,"L9427":1,"LA617":1,"LA627":1,"LA637":1,"LA647":1,"LA657":1,"LA667":1,"LA687":1,"LA697":1,"LF517":1,"LF617":1,"LF627":1,"LF637":1,"LF647":1,"LF657":1,"LF667":1,"LF687":1,"LF697":1,"MA015":1,"MA025":1},"Tesla":{"Model S":14,"Model X":11,"Model 3":9,"Model Y":6,"Roadster":6,"Cybertruck":3,"Semi":1},"WHITEGMC":{"ACL":1,"ACM":1,"AT":1,"CACL":1,"CNR":1,"CWG":1,"DK":1,"DS":1,"FE":1,"NE":1,"NR":1,"WB":1,"WCA":1,"WCL":1,"WCM":1,"WCS":1,"WHEB":1,"WHL":1,"WHLB":1,"WHM":1,"WHR":1,"WHS":1,"WIA":1,"WIL":1,"WIM":1,"WIS":1},"Ram-Lin":{"52":1,"83":1,"203":1,"214":1,"234":1,"266":1,"288":1,"307":1,"512":1,"725":1,"835":1,"925":1,"2235":1,"3510":1,"1225U":1,"166U":1,"206U":1,"612U":1,"625U":1,"62U":1,"825U":1,"83U":1},"Oldsmobile":{"Achieva":1,"Alero":1,"Aurora":1,"Bravada":1,"Custom Cruiser":1,"Cutlass":1,"Cutlass Calais":1,"Cutlass Ciera":1,"Cutlass Cruiser":1,"Cutlass Salon":1,"Cutlass Supreme":1,"Delta 88":1,"Eighty Eight (88)":1,"Firenza":1,"Intrigue":1,"LSS":1,"Ninety Eight (98)":1,"Omega":1,"Regency":1,"Silhouette":1,"Toronado":1},"Mercury":{"Capri":1,"Cougar":1,"Grand Marquis":1,"Lynx":1,"MARQUIS":1,"Marauder":1,"Mariner":1,"Milan":1,"Montego":1,"Monterey":1,"Mountaineer":1,"Mystique":1,"Sable":1,"Topaz":1,"Tracer":1,"Villager":1,"Zephyr":1},"Ram":{"1500":1,"2500":1,"3500":1,"4000":1,"4500":1,"5500":1,"Cargo Van":1,"ProMaster 1500":1,"ProMaster 2500":1,"ProMaster 3500":1,"Promaster City":1},"RamVac":{"1000":1,"2000":1,"2600":1,"3000":1,"3600":1,"HX-1000":1,"HX-2000":1,"HX-3000":1},"RAM OEM Trailer":{"EZR":1,"EZTRJ":1,"EZWR":1,"JSR":1,"WVR":1,"YWR":1,"YWVR":1},"Rivian":{"R1T":4,"R1S":3},"Brammo":{"Brammo Street Bikes":1,"Dual Sport":1,"Scooter":1,"Touring":1,"Urban":1},"TRINITY FRAME & FAB":{"Chopper":1,"Cruiser":1,"Faith":1,"Protorype":1,"Replica":1},"Lucid":{"Air":4},"RIVIAN":{"EDV":1,"R1S":1,"R1T":1,"RCV":1},"CUSTOM WELDED FRAME":{"CP102B":1,"CP80B":1,"CP90B":1},"Pro-Street Frameworks":{"Chopper":1,"Cruiser":1,"LXR":1},"Studebaker Motor Company":{"Fatcat":1,"TomTom Tail":1,"Wild West":1},"Dodger Trailer Manufacturing Inc":{"480 Series":1,"580 Series":1},"Affordable Aluminum":{"Affordable Aluminum":1},"Best Lane Enterprises dba Ramp Free":{"Best Lane Enterprises dba Ramp Free":1},"Burkett's Autorama":{"Burkett's Autorama":1},"Dodgen Industries":{"Dodgen Industries":1},"Eagle Ford Tanks & Trailers LLC":{"Eagle Ford Tanks & Trailers LLC":1},"Easton Custom Frames L.L.C":{"Easton Custom L.L.C":1},"EnduraMax":{"EnduraMax":1},"FATT HOGG FRAMES":{"FATT HOGG FRAMES":1},"FRAMTRAC MANUFACTURING CO. LTD":{"FRAMTRAC MANUFACTURING CO. LTD":1},"Holiday Rambler":{"Holiday Rambler":1},"JR RAMIRO":{"JR RAMIRO":1},"John Ingram, Inc.":{"John Ingram, Inc.":1},"KTM Aluminum Frame":{"KTM Aluminum Frame":1},"KTM Steel Frame":{"KTM Steel Frame":1},"Kramo Trailers":{"Kramo Trailers":1},"Milford Pipe & Supply":{"Milford Pipe & Supply":1},"Milford Welding & Manufacturing":{"Milford Welding & Manufacturing Inc.":1},"NEXGEN FRAMING SYSTEM, LLC":{"NEXGEN FRAMING SYSTEM, LLC":1},"Paramount Custom Cycles":{"Paramount Custom Cycles":1},"PortAFrame":{"PortAFrame":1},"Pyramid":{"Pyramid Manufacturing Co. Trailer":1},"RAMP AGE TRAILER CO.":{"RAMP AGE TRAILER CO.":1},"RAMSHORN WELDING":{"RAMSHORN WELDING":1},"Ram Enterprises, LLC":{"Ram Enterprises, LLC":1},"Ram Fabrication":{"Ram Fabrication":1},"Ram Transcorp":{"Ram Transcorp":1},"Rambler":{"Rambler":1},"Ramika":{"Ramika Industries Trailer":1},"Ramirez":{"Ramirez Trailer":1},"Ramp Champ":{"Ramp Champ":1},"Rampless":{"Rampless":1},"Rampless Motorcycle Trailers":{"Rampless Motorcycle Trailers":1},"Ramptek":{"Ramptek Trailers":1},"Ramsey Fabrication":{"Ramsey Fabrication":1},"Robert Allen Mowery Ramco":{"Robert Allen Mowery Ramco LLC":1},"SCHRAMM, INC.":{"SCHRAMM, INC.":1},"Sprinter (Dodge or Freightliner)":{"Sprinter":1},"TerraMarc Industries":{"TerraMarc Industries":1},"Tram Power Car":{"Tram Power Car":1},"Tram Trailer":{"Tram Trailer":1},"Tramont Corporation":{"Tramont Corporation":1},"Tramont Manufacturing":{"Tramont Manufacturing LLC":1},"Waterford Tank and Fabrication":{"Waterford Tank and Fabrication, LTD":1}},"byYearRange":{"1908":3,"1909":3,"1910":1,"1911":1,"1912":3,"1913":3,"1914":2,"1915":3,"1916":3,"1917":2,"1918":3,"1919":3,"1920":3,"1921":3,"1922":3,"1923":3,"1924":3,"1925":4,"1926":7,"1927":8,"1928":9,"1929":7,"1930":7,"1931":7,"1932":6,"1933":7,"1934":7,"1935":8,"1936":13,"1937":13,"1938":13,"1939":14,"1940":16,"1941":17,"1942":19,"1943":17,"1944":17,"1945":18,"1946":17,"1947":18,"1948":18,"1949":22,"1950":23,"1951":21,"1952":21,"1953":107,"1954":24,"1955":111,"1956":29,"1957":113,"1958":31,"1959":33,"1960":117,"1961":36,"1962":117,"1963":38,"1964":43,"1965":122,"1966":44,"1967":45,"1968":126,"1969":47,"1970":122,"1971":48,"1972":120,"1973":49,"1974":49,"1975":120,"1976":54,"1977":53,"1978":52,"1979":51,"1980":52,"1981":52,"1982":51,"1983":51,"1984":55,"1985":56,"1986":57,"1987":60,"1988":59,"1989":57,"1990":56,"1991":55,"1992":56,"1993":58,"1994":55,"1995":59,"1996":58,"1997":58,"1998":59,"1999":59,"2000":60,"2001":61,"2002":60,"2003":59,"2004":60,"2005":59,"2006":51,"2007":55},"byBodyClass":{"Sedan":2615,"SUV":998,"Coupe":494,"Pickup":290,"Van":167,"Hatchback":109,"Sports Car":109,"Touring Car":38,"Wagon":38,"Convertible":21,"Truck":5,"Limousine":3},"totalCount":4887}}