{"total":665,"page":1,"size":10,"totalPages":67,"query":{"modelCombos":[],"filters":{"manufacturer":"Ford"},"sortBy":null,"sortOrder":"asc"},"results":[{"vehicle_id":"nhtsa-ford-a8513-1975","manufacturer":"Ford","model":"A8513","year":1975,"body_class":"Sedan","data_source":"nhtsa_vpic_large_sample","ingested_at":"2025-10-12T23:22:20.088731","body_class_match_type":"fallback","body_class_updated_at":"2025-11-02T07:32:25.129843","instance_count":12},{"vehicle_id":"nhtsa-ford-a9513-1955","manufacturer":"Ford","model":"A9513","year":1955,"body_class":"Sedan","data_source":"nhtsa_vpic_large_sample","ingested_at":"2025-10-12T23:22:20.093066","body_class_match_type":"fallback","body_class_updated_at":"2025-11-02T07:32:25.129890","instance_count":12},{"vehicle_id":"nhtsa-ford-a9522-1960","manufacturer":"Ford","model":"A9522","year":1960,"body_class":"Sedan","data_source":"nhtsa_vpic_large_sample","ingested_at":"2025-10-12T23:22:20.097597","body_class_match_type":"fallback","body_class_updated_at":"2025-11-02T07:32:25.129937","instance_count":12},{"vehicle_id":"nhtsa-ford-at8513-1953","manufacturer":"Ford","model":"AT8513","year":1953,"body_class":"Sedan","data_source":"nhtsa_vpic_large_sample","ingested_at":"2025-10-12T23:22:20.090929","body_class_match_type":"fallback","body_class_updated_at":"2025-11-02T07:32:25.129868","instance_count":12},{"vehicle_id":"nhtsa-ford-at9513-1957","manufacturer":"Ford","model":"AT9513","year":1957,"body_class":"Sedan","data_source":"nhtsa_vpic_large_sample","ingested_at":"2025-10-12T23:22:20.095279","body_class_match_type":"fallback","body_class_updated_at":"2025-11-02T07:32:25.129914","instance_count":12},{"vehicle_id":"nhtsa-ford-at9522-1962","manufacturer":"Ford","model":"AT9522","year":1962,"body_class":"Sedan","data_source":"nhtsa_vpic_large_sample","ingested_at":"2025-10-12T23:22:20.099702","body_class_match_type":"fallback","body_class_updated_at":"2025-11-02T07:32:25.129961","instance_count":12},{"vehicle_id":"nhtsa-ford-aerostar-1955","manufacturer":"Ford","model":"Aerostar","year":1955,"body_class":"Van","data_source":"nhtsa_vpic_large_sample","ingested_at":"2025-10-12T23:22:20.049549","body_class_match_type":"exact_match","body_class_updated_at":"2025-11-02T07:32:25.129084","instance_count":12},{"vehicle_id":"nhtsa-ford-aspire-1970","manufacturer":"Ford","model":"Aspire","year":1970,"body_class":"Sedan","data_source":"nhtsa_vpic_large_sample","ingested_at":"2025-10-12T23:22:20.040907","body_class_match_type":"fallback","body_class_updated_at":"2025-11-02T07:32:25.129031","instance_count":12},{"vehicle_id":"nhtsa-ford-b-750-1960","manufacturer":"Ford","model":"B-750","year":1960,"body_class":"Sedan","data_source":"nhtsa_vpic_large_sample","ingested_at":"2025-10-12T23:22:20.032091","body_class_match_type":"fallback","body_class_updated_at":"2025-11-02T07:32:25.128643","instance_count":12},{"vehicle_id":"nhtsa-ford-b800-1965","manufacturer":"Ford","model":"B800","year":1965,"body_class":"Sedan","data_source":"nhtsa_vpic_large_sample","ingested_at":"2025-10-12T23:22:20.101845","body_class_match_type":"fallback","body_class_updated_at":"2025-11-02T07:32:25.129988","instance_count":12}],"statistics":{"byManufacturer":{"Ford":665},"modelsByManufacturer":{"Ford":{"Mustang":62,"F-150":51,"Thunderbird":44,"Explorer":35,"Taurus":35,"Bronco":32,"Ranger":30,"Expedition":29,"Escape":25,"Escort":24,"Focus":20,"Model T":20,"Edge":19,"Fairlane":16,"Fusion":16,"Galaxie":16,"Flex":12,"Falcon":11,"Tempo":11,"Fiesta":10,"Pinto":10,"Windstar":10,"Granada":8,"Maverick":8,"Super Deluxe":8,"Mainline":5,"Bronco Sport":4,"Model A":4,"Custom":3,"Deluxe":3,"Model B":3,"Model 48":2,"A8513":1,"A9513":1,"A9522":1,"AT8513":1,"AT9513":1,"AT9522":1,"Aerostar":1,"Aspire":1,"B-750":1,"B800":1,"C-Max":1,"Commercial Chassis":1,"Contour":1,"Crown Victoria":1,"E-150":1,"E-250":1,"E-350":1,"E-450":1}},"byYearRange":{"1908":1,"1909":1,"1910":1,"1911":1,"1912":1,"1913":1,"1914":1,"1915":1,"1916":1,"1917":1,"1918":1,"1919":1,"1920":1,"1921":1,"1922":1,"1923":1,"1924":1,"1925":1,"1926":1,"1927":1,"1928":1,"1929":1,"1930":1,"1931":1,"1932":1,"1933":1,"1934":1,"1935":1,"1936":1,"1938":1,"1939":1,"1940":1,"1941":1,"1942":1,"1943":1,"1944":1,"1945":1,"1946":1,"1947":1,"1948":1,"1949":1,"1950":1,"1951":1,"1952":1,"1953":11,"1954":1,"1955":13,"1956":3,"1957":12,"1958":2,"1959":3,"1960":13,"1961":4,"1962":13,"1963":4,"1964":5,"1965":15,"1966":6,"1967":6,"1968":15,"1969":6,"1970":16,"1971":6,"1972":15,"1973":6,"1974":6,"1975":17,"1976":7,"1977":7,"1978":6,"1979":6,"1980":6,"1981":6,"1982":6,"1983":6,"1984":7,"1985":7,"1986":8,"1987":8,"1988":8,"1989":8,"1990":8,"1991":9,"1992":9,"1993":9,"1994":9,"1995":9,"1996":9,"1997":9,"1998":8,"1999":8,"2000":9,"2001":10,"2002":10,"2003":10,"2004":8,"2005":8,"2006":9,"2007":10,"2008":10},"byBodyClass":{"Sedan":229,"SUV":156,"Coupe":108,"Pickup":88,"Hatchback":43,"Touring Car":20,"Van":18,"Truck":2,"Sports Car":1},"totalCount":665}}